Project_1
…
The average value of energy is about 0.71 on a scale of 0 to 1. The average value of acousticness is about 0.21 on a scale of 0 to 1.

3. Calculate the average duration of song (in minutes) across all subgenres. Which subgenre has the longest song on average?

subgenres <- spotify_songs %>% group_by(playlist_subgenre)

average_minutes <- subgenres %>% summarize("avg_min"=mean(duration_ms)/1000/60)

average_minutes

## # A tibble: 24 x 2
##    playlist_subgenre avg_min
##    <chr>               <dbl>
##  1 album rock           4.26
##  2 big room             3.40
##  3 classic rock         4.28
##  4 dance pop            3.46
##  5 electro house        3.61
##  6 electropop           3.93
##  7 gangster rap         3.63
##  8 hard rock            4.00
##  9 hip hop              3.03
## 10 hip pop              3.53
## # ... with 14 more rows
…
4. Add a new column with the duration of the song in minutes

after1980 <- after1980 %>% mutate(duration_min = duration_ms/1000/60)

after1980$duration_min[1:5]

## [1] 3.245900 2.710000 2.943600 2.818217 3.150867

5. For each year_released, calculate the mean of at least 6 of the audio features (e.g.danceability, energy, loudness, etc), or descriptors (e.g.tempo, duration in minutes, etc). (Hint: If all has gone well thus far, you should have a dataset with 41 rows and 7 columns).

after1980 <- after1980 %>% group_by(year_released) %>% summarize(danceability = mean(danceability), energy = mean(energy), valence = mean(valence), speechiness = mean(speechiness),acousticness = mean(acousticness), liveness = mean(liveness))
                        
after1980

## # A tibble: 41 x 7
##    year_released danceability energy valence speechiness acousticness liveness
##            <dbl>        <dbl>  <dbl>   <dbl>       <dbl>        <dbl>    <dbl>
##  1          1980        0.563  0.711   0.633      0.0611        0.192    0.198
##  2          1981        0.570  0.697   0.665      0.0530        0.164    0.192
##  3          1982        0.652  0.655   0.627      0.0576        0.164    0.173
##  4          1983        0.605  0.734   0.635      0.0527        0.119    0.187
##  5          1984        0.585  0.707   0.617      0.0445        0.194    0.194
##  6          1985        0.609  0.659   0.610      0.0451        0.225    0.165
##  7          1986        0.623  0.665   0.661      0.0473        0.174    0.156
##  8          1987        0.602  0.722   0.623      0.0623        0.142    0.184
##  9          1988        0.672  0.650   0.634      0.0775        0.133    0.165
## 10          1989        0.643  0.700   0.653      0.0627        0.136    0.180
## # ... with 31 more rows

6.Convert this wide dataset into a long dataset with a new feature and mean_score column

after1980 <- after1980 %>% pivot_longer(-year_released, names_to = "feature", values_to = "mean_score")

after1980

## # A tibble: 246 x 3
##    year_released feature      mean_score
##            <dbl> <chr>             <dbl>
##  1          1980 danceability     0.563 
##  2          1980 energy           0.711 
##  3          1980 valence          0.633 
##  4          1980 speechiness      0.0611
##  5          1980 acousticness     0.192 
##  6          1980 liveness         0.198 
##  7          1981 danceability     0.570 
##  8          1981 energy           0.697 
##  9          1981 valence          0.665 
## 10          1981 speechiness      0.0530
## # ... with 236 more rows
…
